…
``` r
tbl <- mpse %>%
       mp_extract_sample()

tbl %>% print(n=5)
```

    ## # A tibble: 19 x 8
    ##   Sample time  Observe Chao1   ACE Shannon Simpson     J
    ##   <chr>  <chr>   <dbl> <dbl> <dbl>   <dbl>   <dbl> <dbl>
    ## 1 F3D0   Early     104  104. 105.     3.88   0.965 0.835
    ## 2 F3D1   Early      99  102  101.     3.97   0.971 0.864
    ## 3 F3D141 Late       74   74   74.2    3.41   0.950 0.793
    ## 4 F3D142 Late       48   48   48      3.12   0.939 0.805
    ## 5 F3D143 Late       56   56   56      3.29   0.946 0.818
    ## # … with 14 more rows

``` r
tbl %<>% tidyr::pivot_longer(
                         cols=!c("Sample", "time"), 
                         names_to="measure", 
                         values_to="alpha"
                       ) %>%
         dplyr::mutate(measure=forcats::fct_relevel(measure, 
                       c("Observe", "Chao1", "ACE", "Simpson", "Shannon", "J"))
                   )
tbl %>% print(n=5)
```

    ## # A tibble: 114 x 4
    ##   Sample time  measure   alpha
    ##   <chr>  <chr> <fct>     <dbl>
    ## 1 F3D0   Early Observe 104    
    ## 2 F3D0   Early Chao1   104.   
    ## 3 F3D0   Early ACE     105.   
    ## 4 F3D0   Early Shannon   3.88 
    ## 5 F3D0   Early Simpson   0.965
    ## # … with 109 more rows
…
